[gd_resource type="StyleBoxFlat" format=2]

[resource]
content_margin_left = 5.0
content_margin_right = 5.0
content_margin_top = 3.0
content_margin_bottom = 3.0
bg_color = Color( 1, 1, 1, 0 )
border_width_left = 1
border_width_top = 1
border_width_right = 1
border_width_bottom = 1
border_color = Color( 1, 1, 1, 1 )
