[gd_resource type="StyleBoxFlat" format=2]

[resource]
bg_color = Color( 0.6, 0.6, 0.6, 0.117647 )
border_width_left = 1
border_width_top = 1
border_width_right = 1
border_width_bottom = 1
border_color = Color( 1, 1, 1, 1 )
border_blend = true
