[gd_resource type="StyleBoxFlat" format=2]

[resource]
content_margin_left = 4.0
content_margin_right = 4.0
content_margin_top = 4.0
content_margin_bottom = 3.0
bg_color = Color( 0.34902, 0.294118, 0.192157, 1 )
border_width_left = 1
border_width_top = 1
border_width_right = 1
border_width_bottom = 1
