[gd_resource type="StyleBoxTexture" load_steps=2 format=2]

[ext_resource path="res://ui/themes/Kenney_UI_RPG/barRed_horizontal_single.png" type="Texture" id=1]





[resource]
texture = ExtResource( 1 )
region_rect = Rect2( 0, 0, 36, 18 )
margin_left = 9.25288
margin_right = 9.12436
