[gd_resource type="DynamicFont" load_steps=2 format=2]

[ext_resource path="res://fonts/DejaVuSans.ttf" type="DynamicFontData" id=1]

[resource]
size = 12
use_mipmaps = true
use_filter = true
font_data = ExtResource( 1 )
